// Jest Snapshot v1, https://goo.gl/fbAQLP

exports[`button component snapshot 1`] = `
<button
  className="button"
  style={
    Object {
      "backgroundColor": undefined,
    }
  }
/>
`;

exports[`test app component 1`] = `<div />`;
